{
  "test": {
    "title": "test post",
    "content": "Hey some post content"
  },
  "second": {
    "title": "second post",
    "content": "Hey this is the second post content"
  },
  "jean": {
    "title": "JEAN LAM",
    "content": "A pro overwatch player and coach"
  }
}
